{
  "type": "service_account",
  "project_id": "medifast-optavia-hybris",
  "private_key_id": "ef908a0df36c0bfd5a7ecbec24aedbcc3d184d12",
  "private_key": "-----BEGIN PRIVATE KEY-----\nMIIEvgIBADANBgkqhkiG9w0BAQEFAASCBKgwggSkAgEAAoIBAQDfypzi3JMKERm/\nLIBOzA7Frd5lnB2y+eGoJWgqzxlpoYXea6KOdgA++xa+ax+FeAeAWIAQ97j2gheh\nFH/QRepksBK6/5FWwR7x0uIRgmAtUqRTz2mxscsF61EvI3l4/uuCpAka8BVnJxpR\nKd4BCD+bvc+Csg75N7FuXnfDiO3WPRv77SgW/YDyfgazs/EjfVlgvxpBK8tJQgv3\nvEG3dVa19fg7N+p98kNFJX82Hqrys8j51B78cPuaTAfSqNpGDVjj+xzNaiPqXO5N\nLZJcQ5Sgzpuw2M9gmGKGlZDK3Z++bLQ2JMeZxgGwtkpLish/0ySWjaZBW37eLE/5\nBkGVZxd1AgMBAAECggEAEMAISpWiXs5FXFD/IIa281ZOb1IGSgtYd76nA49BMm4P\nyERLpDiST6R5ARMhBpsjiph1K2/zNOYrURfo8iSNhPBF0p/G19S4FXcIizF0M+g7\n2vcLDO0HCmAg0TOpR6Ri6cIP2WePXotndZw53N9qbWSBV+Gua7peqilhcu34iUCh\nS3LnC/5wptrCrNbVQL6CniMkG0+dUTRuSa4lfKuGUhNkjWM4WDPowV4TR6RmHR8x\n6eclnCB1VpWjjhqiHcedgzDZxMEcaWdZ1CVuv4AbLGLckAC24A3WO+t/T0UwPogA\ntzPa9cuwU1tdG3jGPo+nJvlAXjB7k1ScBVB1zpZfUQKBgQD7ykbQBbXcWHIiXXkd\nAzGLnGlpajGKIxHrlTJfH5fhSfklW9co0NV5EXHaqFB77d/gQnhtb8lHfQhDZBc9\nQz2mpOjMqnHRA5HFIkHlEiCuUcCXoKbUEcFa3y2SasZEoqUqBBLizZloloee+Pel\nM+hXxfzvr4QZN2A++gMIzJZopQKBgQDjiH64QdemnyphvePFyIAhZF8tK2G2Y1qE\nc5Tta0GEu+q7ylg5fjvHfJsD05ykmXwqGpr8La49+CIp0oo+QN1uzV83MqVjCktj\n2rSfgI0K/4D9qgVXIi5ka2POel5VB7MsWV1PtjvowNnZ2DX4Ib2lPF3c/zYRLi3C\nReY2IiPqkQKBgQC+wcGiSiE8nZlipbRjIY9AuTA3V+fOQsGJ3I+792CGoxdpkUnR\nt11zip7aTJglO9NXwKQiLQWt7nD7NXJRzIaBoQBqRltSQcUHN+v6UyCFUJR7i4+4\nrPbzFJAfFFu/lgVRbqKsR52I2jpHW1GrTEcjcHEvWabXv9df/uObn/v3rQKBgCJx\nqkU4am3l0GOlfFKXjJYBfMr4sz0KA0zjtlrOjseKLvmoovxpGKGVQl4s7ZyZQ4uY\nJXghbiwhYQKVxamw5hR88HoJp7G7gDgoholSy4crsJo138MWAJHhE+XQ7nDOzpfb\nG14SxzTv5MquiVT7vprB7a+jzsqBBBpRvIzbVDaRAoGBAKN0K26umxvMGoXBEiKa\nrfdX6JHbK66DdgRKtX49ObgVPwXHUjQez9sIkUku1wB9pYAGS92NKD/R5Jrn8c9e\n/n4qjOeYJG8P0tvBlDppL3e+0/b539W6bg6wEZbV7ZAzHDqDy5pdB7kLE5x8GRj7\nZb3lU09ieMEF0mPHcNBjeL+D\n-----END PRIVATE KEY-----\n",
  "client_email": "hybris-input-data@medifast-optavia-hybris.iam.gserviceaccount.com",
  "client_id": "115026072958449576854",
  "auth_uri": "https://accounts.google.com/o/oauth2/auth",
  "token_uri": "https://oauth2.googleapis.com/token",
  "auth_provider_x509_cert_url": "https://www.googleapis.com/oauth2/v1/certs",
  "client_x509_cert_url": "https://www.googleapis.com/robot/v1/metadata/x509/hybris-input-data%40medifast-optavia-hybris.iam.gserviceaccount.com"
}
